^C:\USERS\HENRIQUEMANUEL\SOURCE\REPOS\INTERFACE\INTERFACE\X64\DEBUG\ABOUT.OBJ|C:\USERS\HENRIQUEMANUEL\SOURCE\REPOS\INTERFACE\INTERFACE\X64\DEBUG\CLASSIFIER.OBJ|C:\USERS\HENRIQUEMANUEL\SOURCE\REPOS\INTERFACE\INTERFACE\X64\DEBUG\CONSOLE.OBJ|C:\USERS\HENRIQUEMANUEL\SOURCE\REPOS\INTERFACE\INTERFACE\X64\DEBUG\CROSSVAL.OBJ|C:\USERS\HENRIQUEMANUEL\SOURCE\REPOS\INTERFACE\INTERFACE\X64\DEBUG\INTERFACE.OBJ|C:\USERS\HENRIQUEMANUEL\SOURCE\REPOS\INTERFACE\INTERFACE\X64\DEBUG\INTERFACE.RES|C:\USERS\HENRIQUEMANUEL\SOURCE\REPOS\INTERFACE\INTERFACE\X64\DEBUG\INTERFACEDLG.OBJ|C:\USERS\HENRIQUEMANUEL\SOURCE\REPOS\INTERFACE\INTERFACE\X64\DEBUG\PCONFIG.OBJ|C:\USERS\HENRIQUEMANUEL\SOURCE\REPOS\INTERFACE\INTERFACE\X64\DEBUG\SETTINGS.OBJ|C:\USERS\HENRIQUEMANUEL\SOURCE\REPOS\INTERFACE\INTERFACE\X64\DEBUG\STDAFX.OBJ
C:\LIB\INSTALL\OPENCV\X64\VC15\LIB\OPENCV_WORLD400D.LIB
C:\LIB\INSTALL\OPENCV\X64\VC15\LIB\OPENCV_IMG_HASH400D.LIB
C:\PROGRAM FILES (X86)\INTEL REALSENSE SDK 2.0\LIB\X64\REALSENSE2.LIB
C:\USERS\HENRIQUEMANUEL\SOURCE\REPOS\INTERFACE\INTERFACE\X64\DEBUG\INTERFACE.RES
C:\USERS\HENRIQUEMANUEL\SOURCE\REPOS\INTERFACE\INTERFACE\X64\DEBUG\ABOUT.OBJ
C:\USERS\HENRIQUEMANUEL\SOURCE\REPOS\INTERFACE\INTERFACE\X64\DEBUG\CLASSIFIER.OBJ
C:\USERS\HENRIQUEMANUEL\SOURCE\REPOS\INTERFACE\INTERFACE\X64\DEBUG\CONSOLE.OBJ
C:\USERS\HENRIQUEMANUEL\SOURCE\REPOS\INTERFACE\INTERFACE\X64\DEBUG\CROSSVAL.OBJ
C:\USERS\HENRIQUEMANUEL\SOURCE\REPOS\INTERFACE\INTERFACE\X64\DEBUG\INTERFACE.OBJ
C:\USERS\HENRIQUEMANUEL\SOURCE\REPOS\INTERFACE\INTERFACE\X64\DEBUG\INTERFACEDLG.OBJ
C:\USERS\HENRIQUEMANUEL\SOURCE\REPOS\INTERFACE\INTERFACE\X64\DEBUG\PCONFIG.OBJ
C:\USERS\HENRIQUEMANUEL\SOURCE\REPOS\INTERFACE\INTERFACE\X64\DEBUG\SETTINGS.OBJ
C:\USERS\HENRIQUEMANUEL\SOURCE\REPOS\INTERFACE\INTERFACE\X64\DEBUG\STDAFX.OBJ
C:\WINDOWS\SYSTEM32\TZRES.DLL
C:\WINDOWS\GLOBALIZATION\SORTING\SORTDEFAULT.NLS
C:\PROGRAM FILES (X86)\MICROSOFT VISUAL STUDIO\2017\ENTERPRISE\VC\TOOLS\MSVC\14.14.26428\INCLUDE\MANIFEST\DPIAWARE.MANIFEST
C:\PROGRAM FILES (X86)\MICROSOFT VISUAL STUDIO\2017\ENTERPRISE\VC\TOOLS\MSVC\14.14.26428\ATLMFC\LIB\X64\MFC140D.LIB
C:\PROGRAM FILES (X86)\MICROSOFT VISUAL STUDIO\2017\ENTERPRISE\VC\TOOLS\MSVC\14.14.26428\ATLMFC\LIB\X64\MFCS140D.LIB
C:\PROGRAM FILES (X86)\MICROSOFT VISUAL STUDIO\2017\ENTERPRISE\VC\TOOLS\MSVC\14.14.26428\LIB\X64\MSVCRTD.LIB
C:\PROGRAM FILES (X86)\WINDOWS KITS\10\LIB\10.0.16299.0\UM\X64\KERNEL32.LIB
C:\PROGRAM FILES (X86)\WINDOWS KITS\10\LIB\10.0.16299.0\UM\X64\USER32.LIB
C:\PROGRAM FILES (X86)\WINDOWS KITS\10\LIB\10.0.16299.0\UM\X64\GDI32.LIB
C:\PROGRAM FILES (X86)\WINDOWS KITS\10\LIB\10.0.16299.0\UM\X64\MSIMG32.LIB
C:\PROGRAM FILES (X86)\WINDOWS KITS\10\LIB\10.0.16299.0\UM\X64\COMDLG32.LIB
C:\PROGRAM FILES (X86)\WINDOWS KITS\10\LIB\10.0.16299.0\UM\X64\WINSPOOL.LIB
C:\PROGRAM FILES (X86)\WINDOWS KITS\10\LIB\10.0.16299.0\UM\X64\ADVAPI32.LIB
C:\PROGRAM FILES (X86)\WINDOWS KITS\10\LIB\10.0.16299.0\UM\X64\SHELL32.LIB
C:\PROGRAM FILES (X86)\WINDOWS KITS\10\LIB\10.0.16299.0\UM\X64\COMCTL32.LIB
C:\PROGRAM FILES (X86)\WINDOWS KITS\10\LIB\10.0.16299.0\UM\X64\SHLWAPI.LIB
C:\PROGRAM FILES (X86)\WINDOWS KITS\10\LIB\10.0.16299.0\UM\X64\UXTHEME.LIB
C:\PROGRAM FILES (X86)\WINDOWS KITS\10\LIB\10.0.16299.0\UM\X64\WINDOWSCODECS.LIB
C:\PROGRAM FILES (X86)\WINDOWS KITS\10\LIB\10.0.16299.0\UM\X64\UUID.LIB
C:\PROGRAM FILES (X86)\MICROSOFT VISUAL STUDIO\2017\ENTERPRISE\VC\TOOLS\MSVC\14.14.26428\ATLMFC\LIB\X64\ATLS.LIB
C:\PROGRAM FILES (X86)\WINDOWS KITS\10\LIB\10.0.16299.0\UM\X64\OLE32.LIB
C:\PROGRAM FILES (X86)\WINDOWS KITS\10\LIB\10.0.16299.0\UM\X64\OLEAUT32.LIB
C:\PROGRAM FILES (X86)\WINDOWS KITS\10\LIB\10.0.16299.0\UM\X64\OLEDLG.LIB
C:\PROGRAM FILES (X86)\WINDOWS KITS\10\LIB\10.0.16299.0\UM\X64\URLMON.LIB
C:\PROGRAM FILES (X86)\WINDOWS KITS\10\LIB\10.0.16299.0\UM\X64\GDIPLUS.LIB
C:\PROGRAM FILES (X86)\MICROSOFT VISUAL STUDIO\2017\ENTERPRISE\VC\TOOLS\MSVC\14.14.26428\LIB\X64\COMSUPPWD.LIB
C:\PROGRAM FILES (X86)\MICROSOFT VISUAL STUDIO\2017\ENTERPRISE\VC\TOOLS\MSVC\14.14.26428\LIB\X64\OLDNAMES.LIB
C:\PROGRAM FILES (X86)\MICROSOFT VISUAL STUDIO\2017\ENTERPRISE\VC\TOOLS\MSVC\14.14.26428\LIB\X64\MSVCPRTD.LIB
C:\PROGRAM FILES (X86)\WINDOWS KITS\10\LIB\10.0.16299.0\UM\X64\OPENGL32.LIB
C:\PROGRAM FILES (X86)\WINDOWS KITS\10\LIB\10.0.16299.0\UM\X64\GLU32.LIB
C:\PROGRAM FILES (X86)\WINDOWS KITS\10\LIB\10.0.16299.0\UM\X64\WININET.LIB
C:\PROGRAM FILES (X86)\WINDOWS KITS\10\LIB\10.0.16299.0\UM\X64\WS2_32.LIB
C:\PROGRAM FILES (X86)\WINDOWS KITS\10\LIB\10.0.16299.0\UM\X64\MSWSOCK.LIB
C:\PROGRAM FILES (X86)\MICROSOFT VISUAL STUDIO\2017\ENTERPRISE\VC\TOOLS\MSVC\14.14.26428\LIB\X64\VCRUNTIMED.LIB
C:\PROGRAM FILES (X86)\WINDOWS KITS\10\LIB\10.0.16299.0\UCRT\X64\UCRTD.LIB
C:\PROGRAM FILES (X86)\WINDOWS KITS\10\BIN\10.0.16299.0\X86\MT.EXE
C:\PROGRAM FILES (X86)\WINDOWS KITS\10\BIN\10.0.16299.0\X86\RC.EXE
C:\PROGRAM FILES (X86)\MICROSOFT VISUAL STUDIO\2017\ENTERPRISE\VC\TOOLS\MSVC\14.14.26428\BIN\HOSTX86\X86\CVTRES.EXE
C:\PROGRAM FILES (X86)\MICROSOFT VISUAL STUDIO\2017\ENTERPRISE\VC\TOOLS\MSVC\14.14.26428\BIN\HOSTX86\X86\MSPDBSRV.EXE
C:\PROGRAM FILES (X86)\MICROSOFT VISUAL STUDIO\2017\ENTERPRISE\VC\TOOLS\MSVC\14.14.26428\BIN\HOSTX86\X64\VCTIP.EXE
